7 Conditional actions and loops | Reproducible data treatment with R
…
# For more complex operations, use it this way:
sapply(1:nrow(dt), function(i){
    dt$x[i] + dt$y[(i+2)%%nrow(dt)+1] - dt$z[(i+4)%%nrow(dt)+1]
})

## [1]   16   19  -23  -56 -111

7.4 Exercises

Exercise 1

Given x <- runif(1e3, min=-1, max=1), create a tibble like this one:

## # A tibble: 1,000 x 2
##          x y    
##      <dbl> <chr>
##  1  0.208  x>0  
##  2 -0.700  x<=0 
##  3  0.630  x>0  
##  4  0.563  x>0  
##  5 -0.980  x<=0 
##  6  0.721  x>0  
##  7  0.0670 x>0  
##  8  0.207  x>0  
##  9 -0.321  x<=0 
## 10  0.899  x>0  
## # … with 990 more rows
…
