5 Data frames | Reproducible data treatment with R
…
You can find more information on data import and tidyness on the data-import cheatsheet.

5.4.3 Tibbles

A tibble is an enhanced version of the data.frame provided by the tidyverse package. The main advantage of tibble is that it shows better performance than data.frame for large datasets, and it has easier initialization and nicer printing. Otherwise, the handling is basically the same.

More on tibbles here.

library(tidyverse)
tibble(x=runif(1e3), y=cumsum(x))

## # A tibble: 1,000 x 2
##        x     y
##    <dbl> <dbl>
##  1 0.193 0.193
##  2 0.831 1.02 
##  3 0.710 1.73 
##  4 0.829 2.56 
##  5 0.294 2.86 
##  6 0.867 3.72 
##  7 0.133 3.86 
##  8 0.791 4.65 
##  9 0.928 5.58 
## 10 0.421 6.00 
## # … with 990 more rows
…
